<svg width="158" height="30" viewBox="0 0 158 30" fill="none" xmlns="http://www.w3.org/2000/svg">
<path d="M12.5108 0C14.7108 0 16.8108 0.5 18.5108 1.3L17.5108 7.7C16.4108 7.1 15.0108 6.8 13.7108 6.8C11.4108 6.8 9.01077 7.7 8.61077 10.2C8.31077 12.4 10.0108 13.3 12.2108 13.3C14.0108 13.3 15.6108 12.9 17.0108 12.3L15.9108 19.2C13.9108 19.9 12.0108 20.2 10.0108 20.2C3.91077 20.2 -0.789234 16.8 0.110766 10.1C1.11077 2.8 7.21077 0 12.5108 0Z" transform="translate(0 9.60001)" fill="black"/>
<path d="M12.7 0.1L11.2 9.6C12.7 8.7 14.5 8 16.1 8C21.1 8 22.9 11.8 22.3 15.5L20.4 27.4H12.1L13.8 16.5C14 15.4 13.4 14.9 12.5 14.9C11.5 14.9 10.7 15.4 10.1 16L8.3 27.4H0L4.3 0H12.7V0.1Z" transform="translate(18.4108 1.5)" fill="black"/>
<path d="M11.3334 0C19.6334 0 21.3334 6.6 19.3334 11.9H7.63337C8.03337 13.6 10.1334 14.3 12.5334 14.3C14.7334 14.3 16.8334 13.9 18.3334 13.4L17.4334 19.1C15.5334 19.7 13.4334 20 10.6334 20C4.93337 20 -0.966634 16.8 0.133366 9.3C1.23337 2.5 7.03336 0 11.3334 0ZM11.2334 5.4C9.43336 5.4 8.23336 6.8 8.03336 8.1H13.1334C13.5334 6.8 13.0334 5.4 11.2334 5.4Z" transform="translate(42.3774 9.60001)" fill="black"/>
<path d="M12.5108 0C14.7108 0 16.8108 0.5 18.5108 1.3L17.5108 7.7C16.4108 7.1 15.0108 6.8 13.7108 6.8C11.4108 6.8 9.01077 7.7 8.61077 10.2C8.31077 12.4 10.0108 13.3 12.2108 13.3C14.0108 13.3 15.6108 12.9 17.0108 12.3L15.9108 19.2C13.9108 19.9 12.0108 20.2 10.0108 20.2C3.91077 20.2 -0.789234 16.8 0.110766 10.1C1.11077 2.8 7.31077 0 12.5108 0Z" transform="translate(63.7 9.60001)" fill="black"/>
<path d="M24.9 8.6L17.4 18.4L21.8 27.4H13.3L10.6 21.1H9.2L8.3 27.4H0L4.3 0H12.6L10.3 14.7H11.5L15.8 8.6H24.9Z" transform="translate(82.3108 1.60001)" fill="black"/>
<path d="M4.67724 0C2.47724 0 0.577245 1.1 0.0772448 3.7C-0.422755 6.8 1.57724 8.4 3.97724 8.4C6.17724 8.4 8.07724 7.3 8.47724 4.7C9.07724 1.6 7.07724 0 4.67724 0Z" transform="translate(109.333)" fill="black"/>
<path d="M36.3 1.1L22 9L22.2 7.5C22.8 3.9 21 0 16.2 0C14.5 0 12.7 0.5 11 1.6C9.1 3.2 7.2 4.8 5.3 9.6C5.3 9.6 6.1 4.8 10.1 1.5L10.2 0.6H3L0 19.4H8.3L10.1 7.9C10.6 7.5 11.5 6.9 12.5 6.9C13.4 6.9 14 7.4 13.8 8.5L12.9 14.4C12.9 14.7 12.8 14.9 12.8 15.2C12.8 17.9 14.9 20.1 17.7 20.1H17.8H17.9C18.8 20.1 19.6 19.9 20.4 19.5L40.3 8.6L36.3 1.1Z" transform="translate(116.911 9.60001)" fill="black"/>
<path d="M11.2 0H3L0 18.8H8.3L11.2 0Z" transform="translate(105.611 10.2)" fill="black"/>
</svg>
