<svg width="47" height="47" viewBox="0 0 47 47" fill="none" xmlns="http://www.w3.org/2000/svg">
<circle cx="23.5" cy="23.5" r="23.5" fill="#FCFFFF"/>
<path d="M34.1303 16.7811C30.3906 10.9998 22.7554 9.28105 16.8343 12.8748C11.0689 16.4686 9.19905 24.2812 12.9387 30.0625L13.2504 30.5312L12.0038 35.2187L16.6784 33.9687L17.1459 34.2812C19.1716 35.375 21.3531 36 23.5345 36C25.8719 36 28.2092 35.375 30.2348 34.125C36.0002 30.375 37.7142 22.7186 34.1303 16.7811ZM30.8581 28.8124C30.2348 29.75 29.4557 30.375 28.365 30.5312C27.7417 30.5312 26.9626 30.8437 23.8462 29.5937C21.1972 28.3437 19.0157 26.3124 17.4575 23.9687C16.5226 22.8749 16.0552 21.4686 15.8993 20.0624C15.8993 18.8124 16.3668 17.7186 17.1459 16.9374C17.4575 16.6249 17.7692 16.4686 18.0808 16.4686H18.8599C19.1716 16.4686 19.4832 16.4686 19.639 17.0936C19.9507 17.8749 20.7298 19.7499 20.7298 19.9061C20.8856 20.0624 20.8856 20.3749 20.7298 20.5311C20.8856 20.8436 20.7298 21.1561 20.574 21.3124C20.4181 21.4686 20.2623 21.7811 20.1065 21.9374C19.7948 22.0936 19.639 22.4061 19.7948 22.7186C20.4181 23.6562 21.1972 24.5937 21.9763 25.3749C22.9113 26.1562 23.8462 26.7812 24.9369 27.2499C25.2486 27.4062 25.5602 27.4062 25.716 27.0937C25.8719 26.7812 26.651 25.9999 26.9626 25.6874C27.2742 25.3749 27.4301 25.3749 27.7417 25.5312L30.2348 26.7812C30.5465 26.9374 30.8581 27.0937 31.0139 27.2499C31.1698 27.7187 31.1698 28.3437 30.8581 28.8124Z" fill="#0FC70B"/>
</svg>
